#pool	sample	barcode	demultiplexed_file
042012A	1.0_120111_100G_A1_FP	8BC1
042012A	1.0_120111_100G_A2_FP	8BC13
042012A	1.0_120111_100G_A3_FP	8BC25
042012A	1.0_120111_100G_A4_FP	8BC37
042012A	1.0_120111_100G_A5_FP	8BC49
042012A	1.0_120111_100G_B6_FP	8BC61
042012A	1.0_120111_100G_B7_FP	8BC73
042012A	1.0_120111_100G_B8_FP	8BC85
042012A	1.0_120111_100G_B9_FP	8BC2
042012A	1.0_120111_100G_B10_FP	8BC14
042012A	1.0_120111_100G_C11_FP	8BC26
042012A	1.0_120111_100G_C12_FP	8BC38
042012A	1.0_120111_100G_C13_FP	8BC50
042012A	1.0_120111_100G_C14_FP	8BC62
042012A	1.0_120111_100G_C15_FP	8BC74
042012A	1.0_120111_100G_D1_FP	8BC86
042012A	1.0_120111_100G_D2_FP	8BC3
042012A	1.0_120111_100G_D3_FP	8BC15
042012A	1.0_120111_100G_D4_FP	8BC27
042012A	1.0_120111_100G_D5_FP	8BC39
042012A	1.0_120111_100G_E6_FP	8BC51
042012A	1.0_120111_100G_E7_FP	8BC63
042012A	1.0_120111_100G_E8_FP	8BC75
042012A	1.0_120111_100G_E9_FP	8BC87
042012A	1.0_120111_100G_E10_FP	8BC4
042012A	1.0_120111_100G_F11_FP	8BC16
042012A	1.0_120111_100G_F12_FP	8BC28
042012A	1.0_120111_100G_F13_FP	8BC40
042012A	1.0_120111_100G_F14_FP	8BC52
042012A	1.0_120111_100G_F15_FP	8BC64
042012A	1.0_121511_100G_A1_FP	8BC76
042012A	1.0_121511_100G_A2_FP	8BC88
042012A	1.0_121511_100G_A3_FP	8BC5
042012A	1.0_121511_100G_A4_FP	8BC17
042012A	1.0_121511_100G_A5_FP	8BC29
042012A	1.0_121511_100G_B6_FP	8BC41
042012A	1.0_121511_100G_B7_FP	8BC53
042012A	1.0_121511_100G_B8_FP	8BC65
042012A	1.0_121511_100G_B9_FP	8BC77
042012A	1.0_121511_100G_B10_FP	8BC89
042012A	1.0_121511_100G_C11_FP	8BC6
042012A	1.0_121511_100G_C12_FP	8BC18
042012A	1.0_121511_100G_C13_FP	8BC30
042012A	1.0_121511_100G_C14_FP	8BC42
042012A	1.0_121511_100G_C15_FP	8BC54
042012A	1.0_121511_100G_D1_FP	8BC66
042012A	1.0_121511_100G_D2_FP	8BC78
042012A	1.0_121511_100G_D3_FP	8BC90
042012A	1.0_121511_100G_D4_FP	8BC7
042012A	1.0_121511_100G_D5_FP	8BC19
042012A	1.0_121511_100G_E6_FP	8BC31
042012A	1.0_121511_100G_E7_FP	8BC43
042012A	1.0_121511_100G_E8_FP	8BC55
042012A	1.0_121511_100G_E9_FP	8BC67
042012A	1.0_121511_100G_E10_FP	8BC79
042012A	1.0_121511_100G_F11_FP	8BC91
042012A	1.0_121511_100G_F12_FP	8BC8
042012A	1.0_121511_100G_F13_FP	8BC20
042012A	1.0_121511_100G_F14_FP	8BC32
042012A	1.0_121511_100G_F15_FP	8BC44
042012B	1.0_010512_100G_A1_FP	8BC56
042012B	1.0_010512_100G_A2_FP	8BC68
042012B	1.0_010512_100G_A3_FP	8BC80
042012B	1.0_010512_100G_A4_FP	8BC92
042012B	1.0_010512_100G_A5_FP	8BC9
042012B	1.0_010512_100G_B6_FP	8BC21
042012B	1.0_010512_100G_B7_FP	8BC33
042012B	1.0_010512_100G_B8_FP	8BC45
042012B	1.0_010512_100G_B9_FP	8BC57
042012B	1.0_010512_100G_B10_FP	8BC69
042012B	1.0_010512_100G_C11_FP	8BC81
042012B	1.0_010512_100G_C12_FP	8BC93
042012B	1.0_010512_100G_C13_FP	8BC10
042012B	1.0_010512_100G_C14_FP	8BC22
042012B	1.0_010512_100G_C15_FP	8BC34
042012B	1.0_010512_100G_D1_FP	8BC46
042012B	1.0_010512_100G_D2_FP	8BC58
042012B	1.0_010512_100G_D3_FP	8BC70
042012B	1.0_010512_100G_D4_FP	8BC82
042012B	1.0_010512_100G_D5_FP	8BC94
042012B	1.0_010512_100G_E6_FP	8BC11
042012B	1.0_010512_100G_E7_FP	8BC23
042012B	1.0_010512_100G_E8_FP	8BC35
042012B	1.0_010512_100G_E9_FP	8BC47
042012B	1.0_010512_100G_E10_FP	8BC59
042012B	1.0_010512_100G_F11_FP	8BC71
042012B	1.0_010512_100G_F12_FP	8BC83
042012B	1.0_010512_100G_F13_FP	8BC95
042012B	1.0_010512_100G_F14_FP	8BC12
042012B	1.0_010512_100G_F15_FP	8BC24
042012B	1.0_011912_100G_A1_FP	8BC36
042012B	1.0_011912_100G_A2_FP	8BC48
042012B	1.0_011912_100G_A3_FP	8BC60
042012B	1.0_011912_100G_A4_FP	8BC72
042012B	1.0_011912_100G_A5_FP	8BC84
042012B	1.0_011912_100G_B6_FP	8BC96
042012B	1.0_011912_100G_B7_FP	8BC1
042012B	1.0_011912_100G_B8_FP	8BC13
042012B	1.0_011912_100G_B9_FP	8BC25
042012B	1.0_011912_100G_B10_FP	8BC37
042012B	1.0_011912_100G_C11_FP	8BC49
042012B	1.0_011912_100G_C12_FP	8BC61
042012B	1.0_011912_100G_C13_FP	8BC73
042012B	1.0_011912_100G_C14_FP	8BC85
042012B	1.0_011912_100G_C15_FP	8BC2
042012B	1.0_011912_100G_D1_FP	8BC14
042012B	1.0_011912_100G_D2_FP	8BC26
042012B	1.0_011912_100G_D3_FP	8BC38
042012B	1.0_011912_100G_D4_FP	8BC50
042012B	1.0_011912_100G_D5_FP	8BC62
042012B	1.0_011912_100G_E6_FP	8BC74
042012B	1.0_011912_100G_E7_FP	8BC86
042012B	1.0_011912_100G_E8_FP	8BC3
042012B	1.0_011912_100G_E9_FP	8BC15
042012B	1.0_011912_100G_E10_FP	8BC27
042012B	1.0_011912_100G_F11_FP	8BC39
042012B	1.0_011912_100G_F12_FP	8BC51
042012B	1.0_011912_100G_F13_FP	8BC63
042012B	1.0_011912_100G_F14_FP	8BC75
042012B	1.0_011912_100G_F15_FP	8BC87
150520_copro	3.0_150209_3D6_FP_DNA	PE8BC61
150520_copro	3.0_150209_3D7_FP_DNA	PE8BC73
150520_copro	3.0_150209_3D8_FP_DNA	PE8BC85
150520_copro	3.0_150209_3D9_FP_DNA	PE8BC2
150520_copro	3.0_150209_3D10_FP_DNA	PE8BC14
150520_copro	3.0_150223_3D6_FP_DNA	PE8BC86
150520_copro	3.0_150223_3D7_FP_DNA	PE8BC3
150520_copro	3.0_150223_3D8_FP_DNA	PE8BC15
150520_copro	3.0_150223_3D9_FP_DNA	PE8BC27
150520_copro	3.0_150223_3D10_FP_DNA	PE8BC39
